<svg width="24" height="24" viewBox="0 0 24 24" fill="none" xmlns="http://www.w3.org/2000/svg">
<g clip-path="url(#clip0)">
<path d="M19.122 10.2627L17.8687 10.1033C17.7653 9.78533 17.638 9.47867 17.4893 9.18733L18.2633 8.19067C18.5767 7.78733 18.54 7.218 18.182 6.87133L17.132 5.82133C16.782 5.46 16.2127 5.424 15.8087 5.73667L14.8133 6.51067C14.522 6.362 14.2153 6.23467 13.8967 6.13133L13.7373 4.88C13.6773 4.378 13.2513 4 12.7467 4H11.2533C10.7487 4 10.3227 4.378 10.2627 4.878L10.1033 6.13133C9.78467 6.23467 9.478 6.36133 9.18667 6.51067L8.19067 5.73667C7.788 5.424 7.21867 5.46 6.87133 5.818L5.82133 6.86733C5.46 7.218 5.42333 7.78733 5.73667 8.19133L6.51067 9.18733C6.36133 9.47867 6.23467 9.78533 6.13133 10.1033L4.88 10.2627C4.378 10.3227 4 10.7487 4 11.2533V12.7467C4 13.2513 4.378 13.6773 4.878 13.7373L6.13133 13.8967C6.23467 14.2147 6.362 14.5213 6.51067 14.8127L5.73667 15.8093C5.42333 16.2127 5.46 16.782 5.818 17.1287L6.868 18.1787C7.21867 18.5393 7.78733 18.5753 8.19133 18.2627L9.18733 17.4887C9.47867 17.638 9.78533 17.7653 10.1033 17.868L10.2627 19.1187C10.3227 19.622 10.7487 20 11.2533 20H12.7467C13.2513 20 13.6773 19.622 13.7373 19.122L13.8967 17.8687C14.2147 17.7653 14.5213 17.638 14.8127 17.4893L15.8093 18.2633C16.2127 18.5767 16.782 18.54 17.1287 18.182L18.1787 17.132C18.54 16.7813 18.5767 16.2127 18.2633 15.8087L17.4893 14.8127C17.6387 14.5213 17.766 14.2147 17.8687 13.8967L19.1193 13.7373C19.6213 13.6773 19.9993 13.2513 19.9993 12.7467V11.2533C20 10.7487 19.622 10.3227 19.122 10.2627ZM12 15.3333C10.162 15.3333 8.66667 13.838 8.66667 12C8.66667 10.162 10.162 8.66667 12 8.66667C13.838 8.66667 15.3333 10.162 15.3333 12C15.3333 13.838 13.838 15.3333 12 15.3333Z" fill="#C4C4C4"/>
</g>
<defs>
<clipPath id="clip0">
<rect width="16" height="16" fill="white" transform="translate(4 4)"/>
</clipPath>
</defs>
</svg>
