<svg width="24" height="24" viewBox="0 0 24 24" fill="none" xmlns="http://www.w3.org/2000/svg">
<path d="M17.6902 12.5413H16.4529C16.579 12.8866 16.6479 13.2592 16.6479 13.6476V18.3242C16.6479 18.4861 16.6197 18.6416 16.5684 18.7861H18.6141C19.3782 18.7861 19.9999 18.1645 19.9999 17.4003V14.8509C19.9999 13.5774 18.9638 12.5413 17.6902 12.5413Z" fill="#C4C4C4"/>
<path d="M7.35204 13.6476C7.35204 13.2592 7.42094 12.8866 7.54707 12.5413H6.30969C5.03613 12.5413 4 13.5774 4 14.851V17.4004C4 18.1645 4.62166 18.7862 5.38582 18.7862H7.43151C7.38023 18.6416 7.35204 18.4861 7.35204 18.3242V13.6476Z" fill="#C4C4C4"/>
<path d="M13.4144 11.338H10.5856C9.312 11.338 8.27588 12.3741 8.27588 13.6477V18.3243C8.27588 18.5794 8.48269 18.7862 8.73782 18.7862H15.2621C15.5173 18.7862 15.7241 18.5794 15.7241 18.3243V13.6477C15.7241 12.3741 14.6879 11.338 13.4144 11.338Z" fill="#C4C4C4"/>
<path d="M12.0001 5.21375C10.4685 5.21375 9.22241 6.45981 9.22241 7.99147C9.22241 9.03038 9.79582 9.93772 10.6426 10.4141C11.0443 10.64 11.5073 10.7692 12.0001 10.7692C12.4928 10.7692 12.9559 10.64 13.3576 10.4141C14.2044 9.93772 14.7778 9.03035 14.7778 7.99147C14.7778 6.45984 13.5317 5.21375 12.0001 5.21375Z" fill="#C4C4C4"/>
<path d="M7.12227 7.80273C5.9768 7.80273 5.04492 8.73461 5.04492 9.88008C5.04492 11.0256 5.9768 11.9574 7.12227 11.9574C7.41283 11.9574 7.68952 11.8972 7.94086 11.7891C8.37543 11.602 8.73374 11.2708 8.95546 10.8559C9.11109 10.5648 9.19962 10.2326 9.19962 9.88008C9.19962 8.73464 8.26774 7.80273 7.12227 7.80273Z" fill="#C4C4C4"/>
<path d="M16.8776 7.80273C15.7322 7.80273 14.8003 8.73461 14.8003 9.88008C14.8003 10.2326 14.8888 10.5648 15.0445 10.8559C15.2662 11.2708 15.6245 11.602 16.059 11.7891C16.3104 11.8972 16.5871 11.9574 16.8776 11.9574C18.0231 11.9574 18.955 11.0256 18.955 9.88008C18.955 8.73461 18.0231 7.80273 16.8776 7.80273Z" fill="#C4C4C4"/>
</svg>
