<svg width="16" height="16" viewBox="0 0 16 16" fill="none" xmlns="http://www.w3.org/2000/svg">
<path d="M13.6902 8.54126H12.4529C12.579 8.88657 12.6479 9.25923 12.6479 9.64764V14.3242C12.6479 14.4861 12.6197 14.6416 12.5684 14.7861H14.6141C15.3782 14.7861 15.9999 14.1645 15.9999 13.4003V10.8509C15.9999 9.57739 14.9638 8.54126 13.6902 8.54126Z" fill="url(#paint0_linear)"/>
<path d="M3.35204 9.64767C3.35204 9.25923 3.42094 8.8866 3.54707 8.54129H2.30969C1.03613 8.54129 0 9.57742 0 10.851V13.4004C0 14.1645 0.621657 14.7862 1.38582 14.7862H3.43151C3.38023 14.6416 3.35204 14.4862 3.35204 14.3242V9.64767Z" fill="url(#paint1_linear)"/>
<path d="M9.41438 7.33798H6.58557C5.312 7.33798 4.27588 8.37411 4.27588 9.64767V14.3242C4.27588 14.5793 4.48269 14.7862 4.73782 14.7862H11.2621C11.5173 14.7862 11.7241 14.5794 11.7241 14.3242V9.64767C11.7241 8.37411 10.6879 7.33798 9.41438 7.33798Z" fill="url(#paint2_linear)"/>
<path d="M8.0001 1.21371C6.46847 1.21371 5.22241 2.45978 5.22241 3.99144C5.22241 5.03035 5.79582 5.93769 6.64263 6.41407C7.04429 6.64001 7.50735 6.76913 8.0001 6.76913C8.49285 6.76913 8.95591 6.64001 9.35756 6.41407C10.2044 5.93769 10.7778 5.03032 10.7778 3.99144C10.7778 2.45981 9.53172 1.21371 8.0001 1.21371Z" fill="url(#paint3_linear)"/>
<path d="M3.12227 3.80276C1.9768 3.80276 1.04492 4.73464 1.04492 5.88011C1.04492 7.02558 1.9768 7.95746 3.12227 7.95746C3.41283 7.95746 3.68952 7.89727 3.94086 7.78909C4.37543 7.60199 4.73374 7.2708 4.95546 6.85596C5.11109 6.5648 5.19962 6.23264 5.19962 5.88011C5.19962 4.73467 4.26774 3.80276 3.12227 3.80276Z" fill="url(#paint4_linear)"/>
<path d="M12.8776 3.80276C11.7322 3.80276 10.8003 4.73464 10.8003 5.88011C10.8003 6.23268 10.8888 6.56483 11.0445 6.85596C11.2662 7.27083 11.6245 7.60202 12.059 7.78909C12.3104 7.89727 12.5871 7.95746 12.8776 7.95746C14.0231 7.95746 14.955 7.02558 14.955 5.88011C14.955 4.73464 14.0231 3.80276 12.8776 3.80276Z" fill="url(#paint5_linear)"/>
<defs>
<linearGradient id="paint0_linear" x1="14.2264" y1="8.54126" x2="14.2264" y2="14.7861" gradientUnits="userSpaceOnUse">
<stop stop-color="#557CBF"/>
<stop offset="1" stop-color="#194EAA"/>
</linearGradient>
<linearGradient id="paint1_linear" x1="1.77353" y1="8.54129" x2="1.77353" y2="14.7862" gradientUnits="userSpaceOnUse">
<stop stop-color="#557CBF"/>
<stop offset="1" stop-color="#194EAA"/>
</linearGradient>
<linearGradient id="paint2_linear" x1="7.99997" y1="7.33798" x2="7.99997" y2="14.7862" gradientUnits="userSpaceOnUse">
<stop stop-color="#557CBF"/>
<stop offset="1" stop-color="#194EAA"/>
</linearGradient>
<linearGradient id="paint3_linear" x1="8.0001" y1="1.21371" x2="8.0001" y2="6.76913" gradientUnits="userSpaceOnUse">
<stop stop-color="#557CBF"/>
<stop offset="1" stop-color="#194EAA"/>
</linearGradient>
<linearGradient id="paint4_linear" x1="3.12227" y1="3.80276" x2="3.12227" y2="7.95746" gradientUnits="userSpaceOnUse">
<stop stop-color="#557CBF"/>
<stop offset="1" stop-color="#194EAA"/>
</linearGradient>
<linearGradient id="paint5_linear" x1="12.8776" y1="3.80276" x2="12.8776" y2="7.95746" gradientUnits="userSpaceOnUse">
<stop stop-color="#557CBF"/>
<stop offset="1" stop-color="#194EAA"/>
</linearGradient>
</defs>
</svg>
