<svg width="24" height="24" viewBox="0 0 24 24" fill="none" xmlns="http://www.w3.org/2000/svg">
<g clip-path="url(#clip0)">
<path d="M18.5962 10.6431L12.3559 4.40195C11.9879 4.03482 11.3926 4.03917 11.0293 4.40148C10.6641 4.7677 10.6641 5.36233 11.0293 5.72808L17.2705 11.9688C17.6361 12.3344 18.2305 12.3344 18.5962 11.9688C18.9628 11.6022 18.9628 11.0097 18.5962 10.6431Z" fill="url(#paint0_linear)"/>
<path d="M10.5663 6.59076L10.5193 6.8262C10.1885 8.48114 9.38441 10.0534 8.29688 11.3276L11.6921 14.7229C12.9662 13.6356 14.5168 12.8099 16.1718 12.4786L16.4077 12.4317L10.5663 6.59076Z" fill="url(#paint1_linear)"/>
<path d="M7.67437 12.0309L5.35396 14.3509C4.80568 14.8992 4.8034 15.7893 5.35396 16.3399L6.67965 17.6655C7.22793 18.2138 8.11806 18.2161 8.66863 17.6655L10.9888 15.3454L7.67437 12.0309ZM8.00581 15.677C7.82272 15.8601 7.52606 15.8601 7.34297 15.677C7.15987 15.494 7.15987 15.1973 7.34297 15.0142L8.00581 14.3514C8.18891 14.1683 8.48556 14.1683 8.66866 14.3514C8.85175 14.5344 8.85175 14.8311 8.66866 15.0142L8.00581 15.677Z" fill="url(#paint2_linear)"/>
<path d="M12.9458 17.915L13.5835 17.2773C14.1341 16.7268 14.1322 15.8367 13.5835 15.2889L13.1099 14.8149C12.8481 14.9907 12.5981 15.1818 12.355 15.3857L12.9206 15.9521C13.1033 16.1339 13.1046 16.4296 12.9206 16.6145L12.2725 17.2627L11.3199 16.3398L9.99414 17.6655L12.1209 19.7264C12.4839 20.0903 13.0798 20.0923 13.4461 19.7259C13.8119 19.3602 13.8119 18.7656 13.4461 18.3998L12.9458 17.915Z" fill="url(#paint3_linear)"/>
<path d="M14.8394 4C14.5803 4 14.3706 4.20966 14.3706 4.46875V5.40625C14.3706 5.66535 14.5803 5.875 14.8394 5.875C15.0985 5.875 15.3081 5.66535 15.3081 5.40625V4.46875C15.3081 4.20966 15.0985 4 14.8394 4Z" fill="url(#paint4_linear)"/>
<path d="M18.5894 7.75H17.6519C17.3928 7.75 17.1831 7.95966 17.1831 8.21875C17.1831 8.47785 17.3928 8.6875 17.6519 8.6875H18.5894C18.8485 8.6875 19.0581 8.47785 19.0581 8.21875C19.0581 7.95966 18.8485 7.75 18.5894 7.75Z" fill="url(#paint5_linear)"/>
<path d="M17.9833 5.07482C17.8002 4.89173 17.5035 4.89173 17.3204 5.07482L16.3829 6.01232C16.1998 6.19542 16.1998 6.49207 16.3829 6.67517C16.566 6.85826 16.8627 6.85829 17.0458 6.67517L17.9833 5.73767C18.1664 5.55457 18.1664 5.25791 17.9833 5.07482Z" fill="url(#paint6_linear)"/>
</g>
<defs>
<linearGradient id="paint0_linear" x1="14.8133" y1="4.12817" x2="14.8133" y2="12.243" gradientUnits="userSpaceOnUse">
<stop stop-color="#557CBF"/>
<stop offset="1" stop-color="#194EAA"/>
</linearGradient>
<linearGradient id="paint1_linear" x1="12.3523" y1="6.59076" x2="12.3523" y2="14.7229" gradientUnits="userSpaceOnUse">
<stop stop-color="#557CBF"/>
<stop offset="1" stop-color="#194EAA"/>
</linearGradient>
<linearGradient id="paint2_linear" x1="7.96536" y1="12.0309" x2="7.96536" y2="18.0776" gradientUnits="userSpaceOnUse">
<stop stop-color="#557CBF"/>
<stop offset="1" stop-color="#194EAA"/>
</linearGradient>
<linearGradient id="paint3_linear" x1="11.9949" y1="14.8149" x2="11.9949" y2="20" gradientUnits="userSpaceOnUse">
<stop stop-color="#557CBF"/>
<stop offset="1" stop-color="#194EAA"/>
</linearGradient>
<linearGradient id="paint4_linear" x1="14.8394" y1="4" x2="14.8394" y2="5.875" gradientUnits="userSpaceOnUse">
<stop stop-color="#557CBF"/>
<stop offset="1" stop-color="#194EAA"/>
</linearGradient>
<linearGradient id="paint5_linear" x1="18.1206" y1="7.75" x2="18.1206" y2="8.6875" gradientUnits="userSpaceOnUse">
<stop stop-color="#557CBF"/>
<stop offset="1" stop-color="#194EAA"/>
</linearGradient>
<linearGradient id="paint6_linear" x1="17.1831" y1="4.9375" x2="17.1831" y2="6.8125" gradientUnits="userSpaceOnUse">
<stop stop-color="#557CBF"/>
<stop offset="1" stop-color="#194EAA"/>
</linearGradient>
<clipPath id="clip0">
<rect width="16" height="16" fill="white" transform="translate(4 4)"/>
</clipPath>
</defs>
</svg>
