<svg width="48" height="48" viewBox="0 0 48 48" fill="none" xmlns="http://www.w3.org/2000/svg">
<path d="M12.4991 37.0624C9.29721 37.0624 6.44912 35.0123 5.41491 31.9602L5.34496 31.7302C5.10106 30.922 4.99888 30.2423 4.99888 29.5622V15.9257L0.146837 32.1221C-0.477202 34.5044 0.94483 36.9741 3.33075 37.6322L34.2577 45.9147C34.6437 46.0147 35.0297 46.0626 35.4098 46.0626C37.4017 46.0626 39.2218 44.7406 39.7319 42.7923L41.5337 37.0624H12.4991Z" fill="#C6C6C6"/>
<path d="M17.9992 16.0618C20.2053 16.0618 21.9991 14.2677 21.9991 12.0616C21.9991 9.85545 20.2053 8.06134 17.9992 8.06134C15.7931 8.06134 13.999 9.85545 13.999 12.0616C13.999 14.2677 15.7931 16.0618 17.9992 16.0618Z" fill="#C6C6C6"/>
<path d="M42.9998 2.06116H12.999C10.2432 2.06116 7.99902 4.30535 7.99902 7.06152V29.0618C7.99902 31.818 10.2432 34.0622 12.999 34.0622H42.9998C45.7559 34.0622 48.0001 31.818 48.0001 29.0618V7.06152C48.0001 4.30535 45.7559 2.06116 42.9998 2.06116ZM12.999 6.06138H42.9998C43.552 6.06138 43.9999 6.50926 43.9999 7.06152V21.2599L37.6819 13.8875C37.0117 13.1016 36.0416 12.6815 34.9997 12.6577C33.9637 12.6636 32.9917 13.1236 32.3278 13.9197L24.8993 22.8357L22.4794 20.4216C21.1115 19.0538 18.8853 19.0538 17.5193 20.4216L11.9992 25.9398V7.06152C11.9992 6.50926 12.4471 6.06138 12.999 6.06138Z" fill="#C6C6C6"/>
</svg>
