<svg width="16" height="16" viewBox="0 0 16 16" fill="none" xmlns="http://www.w3.org/2000/svg">
<path d="M15.8274 5.1861C15.4936 4.33629 14.8816 3.11014 13.8613 2.09465C12.8446 1.08265 11.6314 0.488153 10.7927 0.167592C9.87199 -0.184313 8.82572 0.0374989 8.12728 0.732652L5.67298 3.17546C4.94545 3.89955 4.73576 5.01373 5.15117 5.94794C5.27998 6.23769 5.42007 6.5211 5.56976 6.79491L0.183062 12.1816C0.0658435 12.2988 0 12.4578 0 12.6235V15.3735C0 15.7187 0.279811 15.9985 0.624998 15.9985H3.37499C3.72017 15.9985 3.99998 15.7187 3.99998 15.3735V14.2485L5.12498 14.2485C5.47017 14.2485 5.74998 13.9687 5.74998 13.6235V12.4985H6.87497C7.22016 12.4985 7.49997 12.2187 7.49997 11.8735C7.49997 11.5284 7.22016 11.2485 6.87497 11.2485H5.12498C4.77979 11.2485 4.49998 11.5284 4.49998 11.8735V12.9985L3.37499 12.9985C3.0298 12.9985 2.74999 13.2784 2.74999 13.6235V14.7485H1.25V12.8824L6.79232 7.34013C6.99594 7.1365 7.0341 6.82016 6.88475 6.57397C6.66816 6.21697 6.46919 5.83548 6.29341 5.44007C6.08719 4.97629 6.19226 4.42226 6.55485 4.06136L9.00912 1.61859C9.35953 1.26987 9.88446 1.15865 10.3466 1.33521C11.0722 1.61259 12.1181 2.12315 12.9795 2.98058C13.8463 3.8432 14.3739 4.90454 14.6639 5.64298C14.8449 6.10385 14.7349 6.62744 14.3838 6.97694L11.8998 9.44924C11.5381 9.80921 10.9982 9.91446 10.5243 9.71737C10.1335 9.55481 9.75496 9.36168 9.39934 9.1434C9.10518 8.96284 8.72031 9.05496 8.53975 9.34915C8.35919 9.64334 8.45128 10.0282 8.74547 10.2088C9.15646 10.461 9.59346 10.684 10.0443 10.8715C10.9862 11.2633 12.0607 11.0527 12.7816 10.3352L15.2655 7.86294C15.9701 7.16172 16.1906 6.11101 15.8274 5.1861Z" fill="#8E8E8E"/>
</svg>
